module sbpstu-2023-bdas/sbpstu-2023-bdas-lab3

go 1.21.4

require (
	github.com/gorilla/mux v1.8.1
	github.com/stretchr/testify v1.8.1
	go.uber.org/zap v1.26.0
	gopkg.in/yaml.v3 v3.0.1
)

require (
	github.com/davecgh/go-spew v1.1.1 // indirect
	github.com/pmezard/go-difflib v1.0.0 // indirect
	go.uber.org/multierr v1.10.0 // indirect
)
